\relax 
\abx@aux@sortscheme{nyt}
\providecommand\@newglossary[4]{}
\@newglossary{main}{glg}{gls}{glo}
\@newglossary{acronym}{alg}{acr}{acn}
\@writefile{toc}{\boolfalse {citerequest}\boolfalse {citetracker}\boolfalse {pagetracker}\boolfalse {backtracker}\relax }
\@writefile{lof}{\boolfalse {citerequest}\boolfalse {citetracker}\boolfalse {pagetracker}\boolfalse {backtracker}\relax }
\@writefile{lot}{\boolfalse {citerequest}\boolfalse {citetracker}\boolfalse {pagetracker}\boolfalse {backtracker}\relax }
\select@language{english}
\@writefile{toc}{\defcounter {refsection}{0}\relax }\@writefile{toc}{\select@language{english}}
\@writefile{lof}{\defcounter {refsection}{0}\relax }\@writefile{lof}{\select@language{english}}
\@writefile{lot}{\defcounter {refsection}{0}\relax }\@writefile{lot}{\select@language{english}}
\providecommand\@gls@reference[3]{}
\tocstyle@set@width {unum}{toc}{}{31.99997pt}
\tocstyle@set@width {skip}{toc}{1}{0.0pt}
\tocstyle@set@width {skip}{toc}{2}{15.0pt}
\tocstyle@set@width {skip}{toc}{3}{38.00003pt}
\@writefile{toc}{\defcounter {refsection}{0}\relax }\@writefile{toc}{\contentsline {section}{List of Publications}{9}}
\@writefile{toc}{\defcounter {refsection}{0}\relax }\@writefile{toc}{\contentsline {subsection}{Included publications}{9}}
\newlabel{section:pubs}{{}{9}{Included publications}{}{}}
\@writefile{toc}{\defcounter {refsection}{0}\relax }\@writefile{toc}{\contentsline {subsection}{Author's contributions}{10}}
\@writefile{toc}{\defcounter {refsection}{0}\relax }\@writefile{toc}{\contentsline {subsection}{Publications not discussed in this thesis}{11}}
\@writefile{toc}{\defcounter {refsection}{0}\relax }\@writefile{toc}{\contentsline {section}{Abbreviations}{13}}
\abx@aux@cite{Sanyal2018}
\abx@aux@cite{Peoples2018}
\abx@aux@cite{Demirel2002}
\abx@aux@cite{Madigan2006}
\abx@aux@cite{Sapp2018}
\abx@aux@cite{Wu2017}
\abx@aux@cite{Gaisin2017}
\abx@aux@cite{Bodaker2010}
\abx@aux@cite{Moissl-Eichinger2016}
\abx@aux@cite{Dalmaso2015}
\abx@aux@cite{Durvasula2018}
\abx@aux@cite{Urbieta2015}
\abx@aux@cite{Bowers2011}
\abx@aux@cite{Ragon2011}
\abx@aux@cite{Saha2014}
\abx@aux@cite{Sabath2013}
\abx@aux@cite{Rampelotto2013}
\abx@aux@cite{Ushikubo2008}
\abx@aux@cite{Nisbet2001}
\abx@aux@cite{Westall2011}
\abx@aux@cite{Simate2014}
\abx@aux@cite{Waksman1922}
\abx@aux@cite{Temple1951}
\abx@aux@cite{holmes2017}
\abx@aux@cite{Druschel2004}
\@writefile{toc}{\defcounter {refsection}{0}\relax }\@writefile{toc}{\contentsline {section}{Introduction}{15}}
\abx@aux@page{1}{15}
\abx@aux@page{2}{15}
\abx@aux@page{3}{15}
\abx@aux@page{4}{15}
\abx@aux@page{5}{15}
\abx@aux@page{6}{15}
\abx@aux@page{7}{15}
\abx@aux@page{8}{15}
\abx@aux@page{9}{15}
\abx@aux@page{14}{15}
\abx@aux@page{15}{15}
\abx@aux@page{16}{15}
\abx@aux@page{17}{15}
\@writefile{lof}{\defcounter {refsection}{0}\relax }\@writefile{lof}{\contentsline {figure}{\numberline {1}{\ignorespaces Phylogenetic tree adapted from \textcite {Dalmaso2015}, illustrating the presence of extremophiles within all three domains and life, along with the resistant characteristic appearing in at least one species of each genera indicated by color.\relax }}{16}}
\providecommand*\caption@xref[2]{\@setref\relax\@undefined{#1}}
\newlabel{fig:extremo_tree}{{1}{16}{Phylogenetic tree adapted from \textcite {Dalmaso2015}, illustrating the presence of extremophiles within all three domains and life, along with the resistant characteristic appearing in at least one species of each genera indicated by color.\relax }{}{}}
\abx@aux@page{18}{16}
\abx@aux@page{19}{16}
\abx@aux@page{20}{16}
\abx@aux@page{21}{16}
\abx@aux@page{22}{16}
\abx@aux@page{23}{16}
\abx@aux@page{24}{16}
\@writefile{lof}{\defcounter {refsection}{0}\relax }\@writefile{lof}{\contentsline {figure}{\numberline {2}{\ignorespaces Acidophiles often inhabit sulfur-rich, acidic environments, such as Rio Tinto in the Iberian Pyritic Belt in Southern Spain (A), and the Norris Geyser Basin of Yellowstone National Park in Wyoming, USA (B). Photo rights: Flickr Creative Commons\relax }}{17}}
\newlabel{fig:early_earth}{{2}{17}{Acidophiles often inhabit sulfur-rich, acidic environments, such as Rio Tinto in the Iberian Pyritic Belt in Southern Spain (A), and the Norris Geyser Basin of Yellowstone National Park in Wyoming, USA (B). Photo rights: Flickr Creative Commons\relax }{}{}}
\abx@aux@page{25}{18}
\abx@aux@page{26}{18}
\abx@aux@page{27}{18}
\abx@aux@page{28}{18}
\abx@aux@cite{Johnsona}
\abx@aux@cite{Quatrini2018}
\abx@aux@cite{Armienta2000}
\abx@aux@cite{Varekamp2008}
\abx@aux@cite{Furniss1999}
\abx@aux@cite{Kwong2009}
\abx@aux@cite{Baker2004a}
\abx@aux@cite{Quatrini2016}
\@writefile{toc}{\defcounter {refsection}{0}\relax }\@writefile{toc}{\contentsline {section}{Acidophiles}{19}}
\abx@aux@page{29}{19}
\abx@aux@page{30}{19}
\abx@aux@page{31}{19}
\abx@aux@page{32}{19}
\abx@aux@page{33}{19}
\abx@aux@page{34}{19}
\abx@aux@page{35}{19}
\abx@aux@page{36}{19}
\abx@aux@cite{Cowan2015}
\abx@aux@cite{Cardenas2010a}
\abx@aux@cite{Nunez2017}
\abx@aux@cite{Hug2016}
\abx@aux@cite{Dopson2016}
\abx@aux@cite{Ciuffreda2015}
\abx@aux@cite{Quast2013}
\abx@aux@cite{Price2010}
\abx@aux@cite{Letunic2016}
\abx@aux@cite{Williams2013b}
\abx@aux@cite{Kelly2000a}
\abx@aux@cite{Drobner1990}
\abx@aux@cite{Hallberg2010}
\abx@aux@cite{Christel2016}
\@writefile{toc}{\defcounter {refsection}{0}\relax }\@writefile{toc}{\contentsline {subsection}{Diversity of acidophilic prokaryotes}{20}}
\newlabel{section:diversity}{{}{20}{Diversity of acidophilic prokaryotes}{}{}}
\@gls@reference{acronym}{at.}{\glsnoidxdisplayloc{}{page}{glsnumberformat}{20}}
\abx@aux@page{38}{20}
\@gls@reference{acronym}{ngs}{\glsnoidxdisplayloc{}{page}{glsnumberformat}{20}}
\abx@aux@page{39}{20}
\abx@aux@page{40}{20}
\abx@aux@page{41}{20}
\abx@aux@page{42}{20}
\@writefile{toc}{\defcounter {refsection}{0}\relax }\@writefile{toc}{\contentsline {subsubsection}{Bacteria}{20}}
\abx@aux@page{43}{20}
\abx@aux@page{44}{20}
\@writefile{lof}{\defcounter {refsection}{0}\relax }\@writefile{lof}{\contentsline {figure}{\numberline {3}{\ignorespaces Unrooted phylogenetic tree of 16S rRNA gene sequences from selected acidophilic Bacteria, collected from SILVA \parencite {Quast2013}. Phylogeny was inferred using FastTree \parencite {Price2010} and the tree drawn by iTOL \parencite {Letunic2016}. Bootstraps < 0.5 are omitted.\relax }}{21}}
\newlabel{fig:acidophile_tree}{{3}{21}{Unrooted phylogenetic tree of 16S rRNA gene sequences from selected acidophilic Bacteria, collected from SILVA \parencite {Quast2013}. Phylogeny was inferred using FastTree \parencite {Price2010} and the tree drawn by iTOL \parencite {Letunic2016}. Bootstraps < 0.5 are omitted.\relax }{}{}}
\abx@aux@cite{Kishimoto1995a}
\abx@aux@cite{Coupland2008}
\abx@aux@cite{Guay1975}
\abx@aux@cite{Harrison1984}
\abx@aux@cite{Liu2011}
\abx@aux@cite{Jones2013}
\abx@aux@cite{Delabary2017}
\abx@aux@cite{Kay2013}
\abx@aux@cite{Wichlacz1986}
\abx@aux@cite{Hamamura2005}
\@writefile{toc}{\defcounter {refsection}{0}\relax }\@writefile{toc}{\contentsline {paragraph}{Proteobacteria}{22}}
\abx@aux@page{51}{22}
\@gls@reference{acronym}{at.}{\glsnoidxdisplayloc{}{page}{glsnumberformat}{20}}
\abx@aux@page{52}{22}
\@gls@reference{acronym}{at.}{\glsnoidxdisplayloc{}{page}{glsnumberformat}{20}}
\@gls@reference{acronym}{at.}{\glsnoidxdisplayloc{}{page}{glsnumberformat}{20}}
\@gls@reference{acronym}{at.}{\glsnoidxdisplayloc{}{page}{glsnumberformat}{20}}
\@gls@reference{acronym}{at.}{\glsnoidxdisplayloc{}{page}{glsnumberformat}{20}}
\@gls@reference{acronym}{at.}{\glsnoidxdisplayloc{}{page}{glsnumberformat}{20}}
\@gls@reference{acronym}{at.}{\glsnoidxdisplayloc{}{page}{glsnumberformat}{20}}
\@gls@reference{acronym}{at.}{\glsnoidxdisplayloc{}{page}{glsnumberformat}{20}}
\abx@aux@page{53}{22}
\@gls@reference{acronym}{isc}{\glsnoidxdisplayloc{}{page}{glsnumberformat}{20}}
\abx@aux@page{54}{22}
\abx@aux@page{55}{22}
\@gls@reference{acronym}{at.}{\glsnoidxdisplayloc{}{page}{glsnumberformat}{20}}
\abx@aux@page{56}{22}
\abx@aux@page{57}{22}
\abx@aux@page{58}{22}
\@gls@reference{acronym}{ac.}{\glsnoidxdisplayloc{}{page}{glsnumberformat}{22}}
\@gls@reference{acronym}{ac.}{\glsnoidxdisplayloc{}{page}{glsnumberformat}{22}}
\@gls@reference{acronym}{ac.}{\glsnoidxdisplayloc{}{page}{glsnumberformat}{22}}
\@gls@reference{acronym}{ac.}{\glsnoidxdisplayloc{}{page}{glsnumberformat}{22}}
\@gls@reference{acronym}{isc}{\glsnoidxdisplayloc{}{page}{glsnumberformat}{22}}
\@gls@reference{acronym}{ac.}{\glsnoidxdisplayloc{}{page}{glsnumberformat}{22}}
\abx@aux@page{59}{22}
\abx@aux@page{60}{22}
\@gls@reference{acronym}{at.}{\glsnoidxdisplayloc{}{page}{glsnumberformat}{22}}
\abx@aux@cite{Kimoto2010}
\abx@aux@cite{Johnson2006b}
\abx@aux@cite{Parro2004}
\abx@aux@cite{Christel2017}
\abx@aux@cite{Schrenk1998}
\abx@aux@cite{Hippe2000}
\abx@aux@cite{Coram2002}
\abx@aux@cite{Rawlings1999a}
\abx@aux@cite{Goltsman2013}
\abx@aux@page{61}{23}
\abx@aux@page{62}{23}
\abx@aux@page{63}{23}
\abx@aux@page{64}{23}
\abx@aux@page{65}{23}
\abx@aux@page{66}{23}
\abx@aux@page{67}{23}
\abx@aux@page{68}{23}
\@gls@reference{acronym}{acc.}{\glsnoidxdisplayloc{}{page}{glsnumberformat}{23}}
\@gls@reference{acronym}{acc.}{\glsnoidxdisplayloc{}{page}{glsnumberformat}{23}}
\@gls@reference{acronym}{acc.}{\glsnoidxdisplayloc{}{page}{glsnumberformat}{23}}
\@gls@reference{acronym}{acc.}{\glsnoidxdisplayloc{}{page}{glsnumberformat}{23}}
\abx@aux@page{69}{23}
\abx@aux@page{70}{23}
\abx@aux@page{71}{23}
\@gls@reference{acronym}{acd.}{\glsnoidxdisplayloc{}{page}{glsnumberformat}{23}}
\@gls@reference{acronym}{acd.}{\glsnoidxdisplayloc{}{page}{glsnumberformat}{23}}
\@gls@reference{acronym}{acd.}{\glsnoidxdisplayloc{}{page}{glsnumberformat}{23}}
\@gls@reference{acronym}{acc.}{\glsnoidxdisplayloc{}{page}{glsnumberformat}{23}}
\abx@aux@page{72}{23}
\@writefile{toc}{\defcounter {refsection}{0}\relax }\@writefile{toc}{\contentsline {paragraph}{Nitrospirae}{23}}
\abx@aux@page{73}{23}
\abx@aux@page{74}{23}
\abx@aux@page{75}{23}
\abx@aux@page{76}{23}
\abx@aux@page{77}{23}
\abx@aux@page{78}{23}
\abx@aux@cite{Golovacheva1978}
\abx@aux@cite{Watling2008}
\abx@aux@cite{Hedrich2013}
\abx@aux@cite{Berkeley1994}
\abx@aux@cite{SILVA2004}
\abx@aux@cite{Karavaiko2005}
\abx@aux@cite{Guo2009}
\abx@aux@cite{Jiang2008}
\abx@aux@cite{Goto2007}
\@gls@reference{acronym}{l.}{\glsnoidxdisplayloc{}{page}{glsnumberformat}{23}}
\@gls@reference{acronym}{l.}{\glsnoidxdisplayloc{}{page}{glsnumberformat}{23}}
\@gls@reference{acronym}{l.}{\glsnoidxdisplayloc{}{page}{glsnumberformat}{23}}
\@gls@reference{acronym}{l.}{\glsnoidxdisplayloc{}{page}{glsnumberformat}{23}}
\abx@aux@page{79}{24}
\@writefile{toc}{\defcounter {refsection}{0}\relax }\@writefile{toc}{\contentsline {paragraph}{Firmicutes}{24}}
\@gls@reference{acronym}{s.}{\glsnoidxdisplayloc{}{page}{glsnumberformat}{24}}
\@gls@reference{acronym}{s.}{\glsnoidxdisplayloc{}{page}{glsnumberformat}{24}}
\@gls@reference{acronym}{s.}{\glsnoidxdisplayloc{}{page}{glsnumberformat}{24}}
\@gls@reference{acronym}{s.}{\glsnoidxdisplayloc{}{page}{glsnumberformat}{24}}
\@gls@reference{acronym}{s.}{\glsnoidxdisplayloc{}{page}{glsnumberformat}{24}}
\abx@aux@page{80}{24}
\@gls@reference{acronym}{isc}{\glsnoidxdisplayloc{}{page}{glsnumberformat}{24}}
\abx@aux@page{81}{24}
\@gls@reference{acronym}{s.}{\glsnoidxdisplayloc{}{page}{glsnumberformat}{24}}
\@gls@reference{acronym}{s.}{\glsnoidxdisplayloc{}{page}{glsnumberformat}{24}}
\@gls@reference{acronym}{s.}{\glsnoidxdisplayloc{}{page}{glsnumberformat}{24}}
\abx@aux@page{82}{24}
\abx@aux@page{83}{24}
\abx@aux@page{84}{24}
\abx@aux@page{85}{24}
\@gls@reference{acronym}{acb.}{\glsnoidxdisplayloc{}{page}{glsnumberformat}{24}}
\@gls@reference{acronym}{acb.}{\glsnoidxdisplayloc{}{page}{glsnumberformat}{24}}
\abx@aux@page{86}{24}
\@gls@reference{acronym}{acb.}{\glsnoidxdisplayloc{}{page}{glsnumberformat}{24}}
\abx@aux@page{87}{24}
\abx@aux@cite{Clark1996a}
\abx@aux@cite{Clum2009}
\abx@aux@cite{Norris2011}
\abx@aux@cite{Johnson2009}
\abx@aux@cite{Stohr2001}
\abx@aux@cite{Dunfield2007}
\abx@aux@page{88}{25}
\@gls@reference{acronym}{acb.}{\glsnoidxdisplayloc{}{page}{glsnumberformat}{24}}
\@gls@reference{acronym}{acb.}{\glsnoidxdisplayloc{}{page}{glsnumberformat}{24}}
\@gls@reference{acronym}{acb.}{\glsnoidxdisplayloc{}{page}{glsnumberformat}{24}}
\abx@aux@page{89}{25}
\abx@aux@page{90}{25}
\abx@aux@page{91}{25}
\@writefile{toc}{\defcounter {refsection}{0}\relax }\@writefile{toc}{\contentsline {paragraph}{Actinobacteria}{25}}
\@gls@reference{acronym}{am.}{\glsnoidxdisplayloc{}{page}{glsnumberformat}{25}}
\abx@aux@page{92}{25}
\@gls@reference{acronym}{isc}{\glsnoidxdisplayloc{}{page}{glsnumberformat}{25}}
\abx@aux@page{93}{25}
\@gls@reference{acronym}{at.}{\glsnoidxdisplayloc{}{page}{glsnumberformat}{25}}
\abx@aux@page{94}{25}
\@gls@reference{acronym}{fx.}{\glsnoidxdisplayloc{}{page}{glsnumberformat}{25}}
\@gls@reference{acronym}{fx.}{\glsnoidxdisplayloc{}{page}{glsnumberformat}{25}}
\abx@aux@page{95}{25}
\@writefile{toc}{\defcounter {refsection}{0}\relax }\@writefile{toc}{\contentsline {paragraph}{Aquificae and Verrucomicrobia}{25}}
\@gls@reference{acronym}{h.}{\glsnoidxdisplayloc{}{page}{glsnumberformat}{25}}
\abx@aux@page{96}{25}
\@gls@reference{acronym}{m.}{\glsnoidxdisplayloc{}{page}{glsnumberformat}{25}}
\abx@aux@cite{Futterer2004}
\abx@aux@cite{Baker-Austin2010}
\abx@aux@cite{Baker-Austin2007}
\abx@aux@cite{Macalady2004}
\abx@aux@cite{Golyshina2016}
\abx@aux@cite{Quehenberger2017}
\abx@aux@cite{Ren-Long1999}
\abx@aux@cite{Huber1992}
\abx@aux@cite{Huber1991}
\abx@aux@page{97}{26}
\@writefile{toc}{\defcounter {refsection}{0}\relax }\@writefile{toc}{\contentsline {subsubsection}{Archaea}{26}}
\abx@aux@page{98}{26}
\abx@aux@page{99}{26}
\abx@aux@page{100}{26}
\abx@aux@page{101}{26}
\abx@aux@page{102}{26}
\@writefile{toc}{\defcounter {refsection}{0}\relax }\@writefile{toc}{\contentsline {paragraph}{Crenarchaeota}{26}}
\abx@aux@page{109}{26}
\@gls@reference{acronym}{sb.}{\glsnoidxdisplayloc{}{page}{glsnumberformat}{26}}
\@gls@reference{acronym}{sb.}{\glsnoidxdisplayloc{}{page}{glsnumberformat}{26}}
\@gls@reference{acronym}{sb.}{\glsnoidxdisplayloc{}{page}{glsnumberformat}{26}}
\abx@aux@page{110}{26}
\@gls@reference{acronym}{isc}{\glsnoidxdisplayloc{}{page}{glsnumberformat}{26}}
\@gls@reference{acronym}{sb.}{\glsnoidxdisplayloc{}{page}{glsnumberformat}{26}}
\@gls@reference{acronym}{sb.}{\glsnoidxdisplayloc{}{page}{glsnumberformat}{26}}
\@gls@reference{acronym}{sb.}{\glsnoidxdisplayloc{}{page}{glsnumberformat}{26}}
\abx@aux@page{111}{26}
\abx@aux@cite{Auernik2010}
\abx@aux@cite{Peng2014}
\@writefile{lof}{\defcounter {refsection}{0}\relax }\@writefile{lof}{\contentsline {figure}{\numberline {4}{\ignorespaces Unrooted phylogenetic tree of 16S rRNA gene sequences from selected acidophilic Archaea, collected from SILVA \parencite {Quast2013}. Phylogeny was inferred using FastTree \parencite {Price2010} and the tree drawn by iTOL \parencite {Letunic2016}. Bootstraps < 0.5 are omitted.\relax }}{27}}
\newlabel{fig:archaea_tree}{{4}{27}{Unrooted phylogenetic tree of 16S rRNA gene sequences from selected acidophilic Archaea, collected from SILVA \parencite {Quast2013}. Phylogeny was inferred using FastTree \parencite {Price2010} and the tree drawn by iTOL \parencite {Letunic2016}. Bootstraps < 0.5 are omitted.\relax }{}{}}
\@gls@reference{acronym}{sb.}{\glsnoidxdisplayloc{}{page}{glsnumberformat}{26}}
\@gls@reference{acronym}{isc}{\glsnoidxdisplayloc{}{page}{glsnumberformat}{26}}
\abx@aux@page{112}{27}
\@gls@reference{acronym}{isc}{\glsnoidxdisplayloc{}{page}{glsnumberformat}{27}}
\abx@aux@page{113}{27}
\@gls@reference{acronym}{ms.}{\glsnoidxdisplayloc{}{page}{glsnumberformat}{27}}
\@gls@reference{acronym}{ms.}{\glsnoidxdisplayloc{}{page}{glsnumberformat}{27}}
\@gls@reference{acronym}{ms.}{\glsnoidxdisplayloc{}{page}{glsnumberformat}{27}}
\abx@aux@cite{Giaveno2012}
\abx@aux@cite{Plumb2007a}
\abx@aux@cite{Segerer1991}
\abx@aux@cite{Segerer1988}
\abx@aux@cite{Langworthy1982}
\abx@aux@cite{Ruepp2000}
\abx@aux@cite{Dopson2004b}
\abx@aux@cite{Golyshina2009}
\@gls@reference{acronym}{ms.}{\glsnoidxdisplayloc{}{page}{glsnumberformat}{27}}
\@gls@reference{acronym}{ms.}{\glsnoidxdisplayloc{}{page}{glsnumberformat}{27}}
\abx@aux@page{114}{28}
\@gls@reference{acronym}{aa.}{\glsnoidxdisplayloc{}{page}{glsnumberformat}{28}}
\@gls@reference{acronym}{aa.}{\glsnoidxdisplayloc{}{page}{glsnumberformat}{28}}
\@gls@reference{acronym}{aa.}{\glsnoidxdisplayloc{}{page}{glsnumberformat}{28}}
\@gls@reference{acronym}{aa.}{\glsnoidxdisplayloc{}{page}{glsnumberformat}{28}}
\@gls@reference{acronym}{aa.}{\glsnoidxdisplayloc{}{page}{glsnumberformat}{28}}
\@gls@reference{acronym}{aa.}{\glsnoidxdisplayloc{}{page}{glsnumberformat}{28}}
\@gls@reference{acronym}{aa.}{\glsnoidxdisplayloc{}{page}{glsnumberformat}{28}}
\abx@aux@page{115}{28}
\abx@aux@page{116}{28}
\abx@aux@page{117}{28}
\@gls@reference{acronym}{sl.}{\glsnoidxdisplayloc{}{page}{glsnumberformat}{28}}
\abx@aux@page{118}{28}
\@writefile{toc}{\defcounter {refsection}{0}\relax }\@writefile{toc}{\contentsline {paragraph}{Euryarchaeota}{28}}
\@gls@reference{acronym}{tp.}{\glsnoidxdisplayloc{}{page}{glsnumberformat}{28}}
\@gls@reference{acronym}{tp.}{\glsnoidxdisplayloc{}{page}{glsnumberformat}{28}}
\abx@aux@page{119}{28}
\abx@aux@page{120}{28}
\@gls@reference{acronym}{tp.}{\glsnoidxdisplayloc{}{page}{glsnumberformat}{28}}
\abx@aux@page{121}{28}
\abx@aux@cite{Schleper1996}
\abx@aux@cite{Klingl2014}
\@gls@reference{acronym}{fp.}{\glsnoidxdisplayloc{}{page}{glsnumberformat}{28}}
\@gls@reference{acronym}{fp.}{\glsnoidxdisplayloc{}{page}{glsnumberformat}{28}}
\abx@aux@page{122}{29}
\@gls@reference{acronym}{ap.}{\glsnoidxdisplayloc{}{page}{glsnumberformat}{28}}
\@gls@reference{acronym}{ap.}{\glsnoidxdisplayloc{}{page}{glsnumberformat}{28}}
\abx@aux@page{123}{29}
\abx@aux@page{124}{29}
\@gls@reference{acronym}{p.}{\glsnoidxdisplayloc{}{page}{glsnumberformat}{29}}
\@gls@reference{acronym}{p.}{\glsnoidxdisplayloc{}{page}{glsnumberformat}{29}}
\abx@aux@page{125}{29}
\abx@aux@page{126}{29}
\@gls@reference{acronym}{p.}{\glsnoidxdisplayloc{}{page}{glsnumberformat}{29}}
\@gls@reference{acronym}{tp.}{\glsnoidxdisplayloc{}{page}{glsnumberformat}{29}}
\abx@aux@page{127}{29}
\abx@aux@cite{Ingledew1982}
\abx@aux@cite{Nitschke2016}
\@writefile{toc}{\defcounter {refsection}{0}\relax }\@writefile{toc}{\contentsline {subsection}{Energy and carbon metabolism}{30}}
\newlabel{section:metab}{{}{30}{Energy and carbon metabolism}{}{}}
\@gls@reference{acronym}{isc}{\glsnoidxdisplayloc{}{page}{glsnumberformat}{30}}
\abx@aux@page{128}{30}
\@gls@reference{acronym}{isc}{\glsnoidxdisplayloc{}{page}{glsnumberformat}{30}}
\@gls@reference{acronym}{pmf}{\glsnoidxdisplayloc{}{page}{glsnumberformat}{30}}
\@gls@reference{acronym}{atp}{\glsnoidxdisplayloc{}{page}{glsnumberformat}{30}}
\@gls@reference{acronym}{nadh}{\glsnoidxdisplayloc{}{page}{glsnumberformat}{30}}
\@gls@reference{acronym}{pmf}{\glsnoidxdisplayloc{}{page}{glsnumberformat}{30}}
\abx@aux@page{129}{30}
\@gls@reference{acronym}{pmf}{\glsnoidxdisplayloc{}{page}{glsnumberformat}{30}}
\abx@aux@page{130}{30}
\abx@aux@page{131}{30}
\@writefile{lof}{\defcounter {refsection}{0}\relax }\@writefile{lof}{\contentsline {figure}{\numberline {5}{\ignorespaces Illustration of key metabolic traits of acidophiles (A), adapted from \textcite {Quatrini2018} and standard reduction potentials E\textsubscript {0} (at pH 0) and E\textsubscript {0}´ (at pH 7) of common substrates and electron carriers of acidophiles (B). As by convention, the couples are depicted as "oxidized state / reduced state". Due to the cytoplasmic location at neutral pH and the associated strong negativity of the NAD\textsuperscript {+}/NADH potential (-0.32V), NADH generation needs to occur by reverse upphill electron transport that consumes \gls {pmf} for many substrates at acidic pH (as illustratated e.g. for ferrous iron), compared to regular downhill transport for terminal electron acceptor reduction.\relax }}{31}}
\@gls@reference{acronym}{pmf}{\glsnoidxdisplayloc{}{page}{glsnumberformat}{30}}
\newlabel{fig:metab}{{5}{31}{Illustration of key metabolic traits of acidophiles (A), adapted from \textcite {Quatrini2018} and standard reduction potentials E\textsubscript {0} (at pH 0) and E\textsubscript {0}´ (at pH 7) of common substrates and electron carriers of acidophiles (B). As by convention, the couples are depicted as "oxidized state / reduced state". Due to the cytoplasmic location at neutral pH and the associated strong negativity of the NAD\textsuperscript {+}/NADH potential (-0.32V), NADH generation needs to occur by reverse upphill electron transport that consumes \gls {pmf} for many substrates at acidic pH (as illustratated e.g. for ferrous iron), compared to regular downhill transport for terminal electron acceptor reduction.\relax }{}{}}
\@writefile{toc}{\defcounter {refsection}{0}\relax }\@writefile{toc}{\contentsline {subsubsection}{Iron}{31}}
\newlabel{section:iron}{{}{31}{Iron}{}{}}
\abx@aux@cite{Talla2014}
\abx@aux@cite{Quatrini2009}
\abx@aux@cite{Castelle2015}
\abx@aux@cite{Holmes2007}
\abx@aux@cite{Bonnefoy2012}
\abx@aux@page{136}{32}
\@gls@reference{acronym}{at.}{\glsnoidxdisplayloc{}{page}{glsnumberformat}{32}}
\abx@aux@page{137}{32}
\abx@aux@page{138}{32}
\abx@aux@page{139}{32}
\abx@aux@page{140}{32}
\@gls@reference{acronym}{pmf}{\glsnoidxdisplayloc{}{page}{glsnumberformat}{32}}
\@gls@reference{acronym}{at.}{\glsnoidxdisplayloc{}{page}{glsnumberformat}{32}}
\abx@aux@page{141}{32}
\abx@aux@page{142}{32}
\abx@aux@page{143}{32}
\abx@aux@page{144}{32}
\@gls@reference{acronym}{ms.}{\glsnoidxdisplayloc{}{page}{glsnumberformat}{32}}
\abx@aux@page{145}{32}
\abx@aux@cite{Corbett1987}
\abx@aux@cite{Pronk1991a}
\abx@aux@cite{Ohmura2002a}
\abx@aux@cite{Osorio2013}
\abx@aux@cite{Kucera2012}
\abx@aux@cite{Dopson2012a}
\abx@aux@cite{Ponce2012}
\abx@aux@cite{Kupka2009}
\abx@aux@cite{Kletzin-sulfur}
\abx@aux@page{146}{33}
\@gls@reference{acronym}{isc}{\glsnoidxdisplayloc{}{page}{glsnumberformat}{33}}
\abx@aux@page{147}{33}
\abx@aux@page{148}{33}
\abx@aux@page{149}{33}
\@gls@reference{acronym}{at.}{\glsnoidxdisplayloc{}{page}{glsnumberformat}{33}}
\abx@aux@page{150}{33}
\@gls@reference{acronym}{at.}{\glsnoidxdisplayloc{}{page}{glsnumberformat}{33}}
\abx@aux@page{151}{33}
\abx@aux@page{152}{33}
\abx@aux@page{153}{33}
\abx@aux@page{154}{33}
\@writefile{toc}{\defcounter {refsection}{0}\relax }\@writefile{toc}{\contentsline {subsubsection}{Inorganic sulfur compounds}{33}}
\newlabel{section:sulfur}{{}{33}{Inorganic sulfur compounds}{}{}}
\@gls@reference{acronym}{isc}{\glsnoidxdisplayloc{}{page}{glsnumberformat}{33}}
\@gls@reference{acronym}{isc}{\glsnoidxdisplayloc{}{page}{glsnumberformat}{33}}
\abx@aux@page{155}{33}
\@gls@reference{acronym}{isc}{\glsnoidxdisplayloc{}{page}{glsnumberformat}{33}}
\@gls@reference{acronym}{isc}{\glsnoidxdisplayloc{}{page}{glsnumberformat}{33}}
\abx@aux@page{156}{33}
\@gls@reference{acronym}{isc}{\glsnoidxdisplayloc{}{page}{glsnumberformat}{33}}
\abx@aux@page{157}{33}
\abx@aux@page{158}{33}
\abx@aux@cite{Suzuki1999a}
\abx@aux@cite{Mangold2011}
\@writefile{lof}{\defcounter {refsection}{0}\relax }\@writefile{lof}{\contentsline {figure}{\numberline {6}{\ignorespaces Model of microbial \glspl {isc} metabolism based on \textcite {Kletzin-sulfur}, \textcite {Dopson2012a}, and \textcite {Nitschke2016}, including enzymes catalyzing the respective reactions. Dashed arrows indicate disproportionation, faint lines indicate spontaneous abiotic reactions. 1) polysulfide reductase; 2) sulfide:quinone oxidoreductase (Sqr) or sulfide:cytochrome \textit  {c} oxidoreductase; 3) sulfur reductase; 4) heterodisulfide reductase (Hdr); 5) sulfite:acceptor oxidoreductase; 6) ATP sulfurylase; 7) reverse ATP sulfurylase (Sat) or adenylylsulfate:phosphate adenylyltransferase; 8) adenylylsulfate reductase; 9) sulfite reductase; 10) tetrathionate reductase; 11) thiosulfate:quinone oxidoreductase (Tqo, DoxDA) or thiosulfate dehydrogenase (Tsd); 12) Sox complex; 13) sulfur oxygenase reductase (Sor); 14) thiosulfate reductastase; 15) tetrathionate hydrolase (TetH); 16) O-acetylserin or O-phosphoserine sulfhydrolases; 17) cysteine desulfurase\relax }}{34}}
\@gls@reference{acronym}{isc}{\glsnoidxdisplayloc{}{page}{glsnumberformat}{33}}
\newlabel{fig:sulfur}{{6}{34}{Model of microbial \glspl {isc} metabolism based on \textcite {Kletzin-sulfur}, \textcite {Dopson2012a}, and \textcite {Nitschke2016}, including enzymes catalyzing the respective reactions. Dashed arrows indicate disproportionation, faint lines indicate spontaneous abiotic reactions. 1) polysulfide reductase; 2) sulfide:quinone oxidoreductase (Sqr) or sulfide:cytochrome \textit {c} oxidoreductase; 3) sulfur reductase; 4) heterodisulfide reductase (Hdr); 5) sulfite:acceptor oxidoreductase; 6) ATP sulfurylase; 7) reverse ATP sulfurylase (Sat) or adenylylsulfate:phosphate adenylyltransferase; 8) adenylylsulfate reductase; 9) sulfite reductase; 10) tetrathionate reductase; 11) thiosulfate:quinone oxidoreductase (Tqo, DoxDA) or thiosulfate dehydrogenase (Tsd); 12) Sox complex; 13) sulfur oxygenase reductase (Sor); 14) thiosulfate reductastase; 15) tetrathionate hydrolase (TetH); 16) O-acetylserin or O-phosphoserine sulfhydrolases; 17) cysteine desulfurase\relax }{}{}}
\@gls@reference{acronym}{at.}{\glsnoidxdisplayloc{}{page}{glsnumberformat}{33}}
\abx@aux@page{159}{34}
\@gls@reference{acronym}{isc}{\glsnoidxdisplayloc{}{page}{glsnumberformat}{34}}
\abx@aux@page{172}{34}
\@gls@reference{acronym}{at.}{\glsnoidxdisplayloc{}{page}{glsnumberformat}{34}}
\abx@aux@page{173}{34}
\@gls@reference{acronym}{isc}{\glsnoidxdisplayloc{}{page}{glsnumberformat}{34}}
\abx@aux@cite{Koschorreck2008}
\abx@aux@cite{Nancucheo2016}
\abx@aux@cite{Laska2003}
\abx@aux@cite{Alazard2010}
\abx@aux@cite{Sanchez-Andrea2014a}
\abx@aux@cite{Sanchez-Andrea2011}
\abx@aux@cite{Pimenov2015}
\abx@aux@cite{Pinto2016}
\@gls@reference{acronym}{pmf}{\glsnoidxdisplayloc{}{page}{glsnumberformat}{34}}
\abx@aux@page{174}{35}
\@gls@reference{acronym}{isc}{\glsnoidxdisplayloc{}{page}{glsnumberformat}{35}}
\abx@aux@page{175}{35}
\abx@aux@page{176}{35}
\abx@aux@page{177}{35}
\@gls@reference{acronym}{aa.}{\glsnoidxdisplayloc{}{page}{glsnumberformat}{35}}
\@gls@reference{acronym}{aa.}{\glsnoidxdisplayloc{}{page}{glsnumberformat}{35}}
\@gls@reference{acronym}{sl.}{\glsnoidxdisplayloc{}{page}{glsnumberformat}{35}}
\abx@aux@page{178}{35}
\abx@aux@page{179}{35}
\@gls@reference{acronym}{at.}{\glsnoidxdisplayloc{}{page}{glsnumberformat}{35}}
\@gls@reference{acronym}{at.}{\glsnoidxdisplayloc{}{page}{glsnumberformat}{35}}
\abx@aux@page{180}{35}
\abx@aux@page{181}{35}
\@gls@reference{acronym}{ds.}{\glsnoidxdisplayloc{}{page}{glsnumberformat}{35}}
\@gls@reference{acronym}{ds.}{\glsnoidxdisplayloc{}{page}{glsnumberformat}{35}}
\abx@aux@page{182}{35}
\abx@aux@page{183}{35}
\abx@aux@page{184}{35}
\abx@aux@cite{Schwartz2013}
\abx@aux@cite{Frey2002}
\abx@aux@cite{Huber1989a}
\abx@aux@cite{Segerer1986}
\abx@aux@cite{Brock1972}
\abx@aux@cite{Shima1993}
\abx@aux@cite{Johnson2009b}
\abx@aux@cite{Calvin1962}
\abx@aux@cite{Shively1998}
\abx@aux@cite{Esparza2010}
\abx@aux@cite{Strauss1993}
\abx@aux@page{185}{36}
\abx@aux@page{186}{36}
\abx@aux@page{187}{36}
\@writefile{toc}{\defcounter {refsection}{0}\relax }\@writefile{toc}{\contentsline {subsubsection}{Hydrogen}{36}}
\newlabel{section:hydrogen}{{}{36}{Hydrogen}{}{}}
\abx@aux@page{188}{36}
\abx@aux@page{189}{36}
\abx@aux@page{190}{36}
\abx@aux@page{191}{36}
\abx@aux@page{192}{36}
\@gls@reference{acronym}{at.}{\glsnoidxdisplayloc{}{page}{glsnumberformat}{36}}
\@gls@reference{acronym}{h.}{\glsnoidxdisplayloc{}{page}{glsnumberformat}{36}}
\abx@aux@page{193}{36}
\abx@aux@page{194}{36}
\abx@aux@page{196}{36}
\@gls@reference{acronym}{isc}{\glsnoidxdisplayloc{}{page}{glsnumberformat}{36}}
\@writefile{toc}{\defcounter {refsection}{0}\relax }\@writefile{toc}{\contentsline {subsubsection}{Carbon}{36}}
\newlabel{section:carbon}{{}{36}{Carbon}{}{}}
\abx@aux@page{197}{36}
\@gls@reference{acronym}{rubisco}{\glsnoidxdisplayloc{}{page}{glsnumberformat}{36}}
\abx@aux@cite{Zakharchuk1994}
\abx@aux@cite{Shuttleworth1985}
\abx@aux@cite{She2001}
\abx@aux@cite{Wood2004}
\abx@aux@page{198}{37}
\abx@aux@page{199}{37}
\abx@aux@page{200}{37}
\@gls@reference{acronym}{h.}{\glsnoidxdisplayloc{}{page}{glsnumberformat}{36}}
\@gls@reference{acronym}{l.}{\glsnoidxdisplayloc{}{page}{glsnumberformat}{36}}
\abx@aux@page{201}{37}
\abx@aux@page{202}{37}
\@gls@reference{acronym}{ac.}{\glsnoidxdisplayloc{}{page}{glsnumberformat}{37}}
\@gls@reference{acronym}{am.}{\glsnoidxdisplayloc{}{page}{glsnumberformat}{37}}
\@gls@reference{acronym}{s.}{\glsnoidxdisplayloc{}{page}{glsnumberformat}{37}}
\abx@aux@page{203}{37}
\@gls@reference{acronym}{ac.}{\glsnoidxdisplayloc{}{page}{glsnumberformat}{37}}
\abx@aux@page{204}{37}
\@gls@reference{acronym}{sb.}{\glsnoidxdisplayloc{}{page}{glsnumberformat}{37}}
\abx@aux@page{205}{37}
\@gls@reference{acronym}{tca}{\glsnoidxdisplayloc{}{page}{glsnumberformat}{37}}
\abx@aux@page{206}{37}
\abx@aux@page{207}{37}
\@gls@reference{acronym}{pmf}{\glsnoidxdisplayloc{}{page}{glsnumberformat}{37}}
\abx@aux@page{208}{37}
\abx@aux@page{209}{37}
\abx@aux@cite{Crossman2004}
\abx@aux@cite{Ram2005}
\abx@aux@cite{Jones2012}
\abx@aux@cite{Buetti-Dinh2016}
\abx@aux@cite{Amaro1991}
\@writefile{toc}{\defcounter {refsection}{0}\relax }\@writefile{toc}{\contentsline {subsection}{Challenges and adaptations of life in acid}{38}}
\newlabel{section:challenges}{{}{38}{Challenges and adaptations of life in acid}{}{}}
\@gls@reference{acronym}{ros}{\glsnoidxdisplayloc{}{page}{glsnumberformat}{38}}
\@writefile{toc}{\defcounter {refsection}{0}\relax }\@writefile{toc}{\contentsline {subsubsection}{pH}{38}}
\newlabel{section:ph}{{}{38}{pH}{}{}}
\abx@aux@page{210}{38}
\abx@aux@page{211}{38}
\@gls@reference{acronym}{pmf}{\glsnoidxdisplayloc{}{page}{glsnumberformat}{38}}
\abx@aux@page{212}{38}
\abx@aux@page{213}{38}
\abx@aux@page{214}{38}
\@gls@reference{acronym}{pmf}{\glsnoidxdisplayloc{}{page}{glsnumberformat}{38}}
\abx@aux@cite{Castanie-Cornet1999}
\abx@aux@cite{Dopson2003}
\abx@aux@cite{Dold2017}
\abx@aux@cite{Reddy1995}
\abx@aux@cite{Kadnikov2016}
\abx@aux@cite{Blowes2003}
\abx@aux@cite{Dopson2014}
\abx@aux@cite{Navarro2013}
\abx@aux@page{215}{39}
\abx@aux@page{216}{39}
\abx@aux@page{217}{39}
\abx@aux@page{218}{39}
\abx@aux@page{219}{39}
\abx@aux@page{220}{39}
\@writefile{toc}{\defcounter {refsection}{0}\relax }\@writefile{toc}{\contentsline {subsubsection}{Heavy metals}{39}}
\abx@aux@page{221}{39}
\abx@aux@cite{Huang2016}
\abx@aux@cite{Rensing2000}
\abx@aux@cite{Nies1999}
\abx@aux@cite{Nikaido2018}
\abx@aux@cite{Orell2012}
\abx@aux@cite{Remonsellez2006}
\abx@aux@cite{Harrison2007}
\abx@aux@cite{Schelert2004}
\abx@aux@cite{Dopson2014a}
\abx@aux@page{222}{40}
\abx@aux@page{223}{40}
\abx@aux@page{224}{40}
\abx@aux@page{225}{40}
\abx@aux@page{226}{40}
\abx@aux@page{227}{40}
\abx@aux@page{228}{40}
\abx@aux@page{229}{40}
\abx@aux@page{230}{40}
\abx@aux@page{231}{40}
\abx@aux@page{232}{40}
\abx@aux@page{233}{40}
\abx@aux@page{234}{40}
\@gls@reference{acronym}{eps}{\glsnoidxdisplayloc{}{page}{glsnumberformat}{40}}
\abx@aux@page{235}{40}
\@gls@reference{acronym}{sb.}{\glsnoidxdisplayloc{}{page}{glsnumberformat}{40}}
\abx@aux@page{236}{40}
\@gls@reference{acronym}{at.}{\glsnoidxdisplayloc{}{page}{glsnumberformat}{40}}
\@gls@reference{acronym}{l.}{\glsnoidxdisplayloc{}{page}{glsnumberformat}{40}}
\abx@aux@cite{Fridovich1978875}
\abx@aux@cite{Jones2012a}
\abx@aux@cite{ferrer2016oxidative}
\abx@aux@cite{Rawlings2005}
\abx@aux@cite{Schoonen2006}
\abx@aux@page{237}{41}
\@gls@reference{acronym}{isc}{\glsnoidxdisplayloc{}{page}{glsnumberformat}{40}}
\abx@aux@page{238}{41}
\@writefile{toc}{\defcounter {refsection}{0}\relax }\@writefile{toc}{\contentsline {subsubsection}{Oxidative stress}{41}}
\newlabel{section:oxidative}{{}{41}{Oxidative stress}{}{}}
\abx@aux@page{239}{41}
\abx@aux@page{240}{41}
\@gls@reference{acronym}{ros}{\glsnoidxdisplayloc{}{page}{glsnumberformat}{41}}
\abx@aux@page{241}{41}
\abx@aux@page{242}{41}
\abx@aux@page{243}{41}
\newlabel{eq:fenton}{{1}{41}{Oxidative stress}{}{}}
\newlabel{eq:haber-weiss}{{2}{41}{Oxidative stress}{}{}}
\abx@aux@cite{Fahey2001}
\abx@aux@cite{Cardenas2012}
\abx@aux@cite{Maaty2009}
\abx@aux@page{244}{42}
\abx@aux@page{245}{42}
\abx@aux@page{246}{42}
\abx@aux@page{247}{42}
\abx@aux@page{248}{42}
\abx@aux@cite{Liljeqvist2015}
\abx@aux@cite{DeMaayer2014}
\abx@aux@cite{Cavicchioli2016}
\abx@aux@cite{Bakermans2004}
\abx@aux@cite{DAmico2006}
\abx@aux@cite{Casanueva2010}
\abx@aux@cite{Watkin2016}
\abx@aux@cite{Phadtare2004a}
\abx@aux@cite{Barria2013}
\abx@aux@cite{Phadtare2010}
\abx@aux@cite{Liljeqvist2012genomics}
\@writefile{toc}{\defcounter {refsection}{0}\relax }\@writefile{toc}{\contentsline {subsection}{Polyextremophiles}{43}}
\@writefile{toc}{\defcounter {refsection}{0}\relax }\@writefile{toc}{\contentsline {subsubsection}{Temperature: Psychro- and thermoacidophiles}{43}}
\newlabel{section:extremetemp}{{}{43}{Temperature: Psychro- and thermoacidophiles}{}{}}
\abx@aux@page{249}{43}
\abx@aux@page{250}{43}
\abx@aux@page{251}{43}
\abx@aux@page{252}{43}
\abx@aux@page{253}{43}
\abx@aux@page{254}{43}
\abx@aux@cite{Liljeqvist2013}
\abx@aux@cite{Johnson2014a}
\abx@aux@cite{Jones2015}
\abx@aux@cite{Stetter1999}
\abx@aux@cite{Chien1976}
\abx@aux@page{255}{44}
\@gls@reference{acronym}{csp}{\glsnoidxdisplayloc{}{page}{glsnumberformat}{43}}
\@gls@reference{acronym}{cip}{\glsnoidxdisplayloc{}{page}{glsnumberformat}{43}}
\abx@aux@page{256}{44}
\abx@aux@page{257}{44}
\abx@aux@page{258}{44}
\abx@aux@page{259}{44}
\abx@aux@page{260}{44}
\abx@aux@page{261}{44}
\abx@aux@page{262}{44}
\@gls@reference{acronym}{at.}{\glsnoidxdisplayloc{}{page}{glsnumberformat}{44}}
\abx@aux@page{263}{44}
\abx@aux@page{264}{44}
\abx@aux@page{265}{44}
\@gls@reference{acronym}{fv.}{\glsnoidxdisplayloc{}{page}{glsnumberformat}{44}}
\abx@aux@page{266}{44}
\abx@aux@page{267}{44}
\@gls@reference{acronym}{acx.}{\glsnoidxdisplayloc{}{page}{glsnumberformat}{44}}
\abx@aux@page{268}{44}
\abx@aux@cite{Albers2000}
\abx@aux@cite{Ward2017}
\abx@aux@page{269}{45}
\abx@aux@page{270}{45}
\@gls@reference{acronym}{am.}{\glsnoidxdisplayloc{}{page}{glsnumberformat}{45}}
\@gls@reference{acronym}{at.}{\glsnoidxdisplayloc{}{page}{glsnumberformat}{45}}
\abx@aux@page{271}{45}
\@gls@reference{acronym}{h.}{\glsnoidxdisplayloc{}{page}{glsnumberformat}{45}}
\@gls@reference{acronym}{m.}{\glsnoidxdisplayloc{}{page}{glsnumberformat}{45}}
\abx@aux@page{272}{45}
\abx@aux@page{273}{45}
\abx@aux@page{274}{45}
\@gls@reference{acronym}{isc}{\glsnoidxdisplayloc{}{page}{glsnumberformat}{45}}
\abx@aux@cite{Warren2011}
\abx@aux@cite{Santos2016}
\abx@aux@cite{Sherlock1995}
\abx@aux@cite{Parbhakar-Fox2015}
\abx@aux@cite{Vera2013}
\abx@aux@cite{Schippers1999}
\abx@aux@cite{Moses1987}
\abx@aux@cite{Luther1987}
\abx@aux@cite{dutrizac1974}
\abx@aux@cite{Baker2003}
\abx@aux@cite{Kuang2013}
\@writefile{toc}{\defcounter {refsection}{0}\relax }\@writefile{toc}{\contentsline {subsection}{Environmental and ecological implications of acidophiles}{46}}
\@writefile{toc}{\defcounter {refsection}{0}\relax }\@writefile{toc}{\contentsline {subsubsection}{Acid rock and mine drainage}{46}}
\newlabel{section:ardamd}{{}{46}{Acid rock and mine drainage}{}{}}
\@gls@reference{acronym}{ard}{\glsnoidxdisplayloc{}{page}{glsnumberformat}{46}}
\abx@aux@page{275}{46}
\abx@aux@page{276}{46}
\abx@aux@page{277}{46}
\newlabel{eq:pyrite_ox}{{3}{46}{Acid rock and mine drainage}{}{}}
\abx@aux@page{278}{46}
\abx@aux@page{279}{46}
\abx@aux@page{280}{46}
\@gls@reference{acronym}{ard}{\glsnoidxdisplayloc{}{page}{glsnumberformat}{46}}
\@gls@reference{acronym}{ard}{\glsnoidxdisplayloc{}{page}{glsnumberformat}{46}}
\abx@aux@page{281}{46}
\newlabel{eq:bioleaching}{{4}{46}{Acid rock and mine drainage}{}{}}
\@writefile{lof}{\defcounter {refsection}{0}\relax }\@writefile{lof}{\contentsline {figure}{\numberline {7}{\ignorespaces Schematic illustration of the two mineral dissolution pathways, adapted from \textcite {Schippers1999}\relax }}{47}}
\newlabel{fig:pathways}{{7}{47}{Schematic illustration of the two mineral dissolution pathways, adapted from \textcite {Schippers1999}\relax }{}{}}
\@gls@reference{acronym}{isc}{\glsnoidxdisplayloc{}{page}{glsnumberformat}{46}}
\abx@aux@page{282}{47}
\abx@aux@page{287}{47}
\abx@aux@page{288}{47}
\abx@aux@page{289}{47}
\abx@aux@page{290}{47}
\abx@aux@page{291}{47}
\@gls@reference{acronym}{ard}{\glsnoidxdisplayloc{}{page}{glsnumberformat}{46}}
\abx@aux@cite{Verburg2009}
\abx@aux@cite{Amils2016}
\abx@aux@cite{Leistel1997}
\abx@aux@cite{DavisJr.2000}
\abx@aux@cite{Gonzalez-Toril2003}
\abx@aux@cite{Hoffert1947}
\abx@aux@cite{Younger2017a}
\abx@aux@cite{Jacobs2014}
\abx@aux@cite{Nordstrom2000a}
\@gls@reference{acronym}{ard}{\glsnoidxdisplayloc{}{page}{glsnumberformat}{46}}
\@gls@reference{acronym}{at.}{\glsnoidxdisplayloc{}{page}{glsnumberformat}{46}}
\@gls@reference{acronym}{fv.}{\glsnoidxdisplayloc{}{page}{glsnumberformat}{46}}
\abx@aux@page{292}{48}
\@gls@reference{acronym}{ard}{\glsnoidxdisplayloc{}{page}{glsnumberformat}{48}}
\abx@aux@page{293}{48}
\abx@aux@page{294}{48}
\@gls@reference{acronym}{ard}{\glsnoidxdisplayloc{}{page}{glsnumberformat}{48}}
\abx@aux@page{295}{48}
\abx@aux@page{296}{48}
\abx@aux@page{297}{48}
\@gls@reference{acronym}{amd}{\glsnoidxdisplayloc{}{page}{glsnumberformat}{48}}
\abx@aux@page{298}{48}
\abx@aux@page{299}{48}
\@gls@reference{acronym}{ard}{\glsnoidxdisplayloc{}{page}{glsnumberformat}{48}}
\abx@aux@page{300}{48}
\abx@aux@page{301}{48}
\abx@aux@page{302}{48}
\@gls@reference{acronym}{amd}{\glsnoidxdisplayloc{}{page}{glsnumberformat}{48}}
\abx@aux@page{303}{48}
\abx@aux@page{304}{48}
\@gls@reference{acronym}{amd}{\glsnoidxdisplayloc{}{page}{glsnumberformat}{48}}
\@gls@reference{acronym}{amd}{\glsnoidxdisplayloc{}{page}{glsnumberformat}{48}}
\abx@aux@cite{Caraballo2009}
\abx@aux@cite{Peppas2000}
\abx@aux@cite{Moncur2015}
\abx@aux@cite{Choi2015}
\abx@aux@cite{Sanchez-Andrea2014}
\abx@aux@cite{Ni2016}
\abx@aux@cite{Bloomfleld1974}
\abx@aux@cite{michael2013ecological}
\abx@aux@cite{Boman2010}
\abx@aux@cite{Cook2000}
\abx@aux@cite{Wu2013}
\abx@aux@cite{Minh1997}
\abx@aux@cite{Fitzpatrick2017}
\abx@aux@page{305}{49}
\abx@aux@page{306}{49}
\@gls@reference{acronym}{amd}{\glsnoidxdisplayloc{}{page}{glsnumberformat}{49}}
\abx@aux@page{307}{49}
\@gls@reference{acronym}{amd}{\glsnoidxdisplayloc{}{page}{glsnumberformat}{49}}
\abx@aux@page{308}{49}
\abx@aux@page{309}{49}
\@gls@reference{acronym}{amd}{\glsnoidxdisplayloc{}{page}{glsnumberformat}{49}}
\@gls@reference{acronym}{isc}{\glsnoidxdisplayloc{}{page}{glsnumberformat}{49}}
\@gls@reference{acronym}{amd}{\glsnoidxdisplayloc{}{page}{glsnumberformat}{49}}
\abx@aux@page{310}{49}
\abx@aux@page{311}{49}
\abx@aux@page{312}{49}
\abx@aux@page{313}{49}
\abx@aux@cite{Nordmyr2008a}
\abx@aux@cite{Powell2005}
\abx@aux@cite{Bronswijk1995}
\abx@aux@cite{Hinwood2006}
\abx@aux@cite{sullivan2002}
\abx@aux@cite{Ling2015}
\abx@aux@cite{Arkesteyn1980}
\abx@aux@cite{Wu2015}
\abx@aux@cite{Hogfors-Ronnholm2017}
\@writefile{toc}{\defcounter {refsection}{0}\relax }\@writefile{toc}{\contentsline {subsubsection}{Acid sulfate soils}{50}}
\newlabel{section:ass}{{}{50}{Acid sulfate soils}{}{}}
\@gls@reference{acronym}{ass}{\glsnoidxdisplayloc{}{page}{glsnumberformat}{49}}
\@gls@reference{acronym}{ard}{\glsnoidxdisplayloc{}{page}{glsnumberformat}{49}}
\@gls@reference{acronym}{ass}{\glsnoidxdisplayloc{}{page}{glsnumberformat}{49}}
\abx@aux@page{314}{50}
\@gls@reference{acronym}{pass}{\glsnoidxdisplayloc{}{page}{glsnumberformat}{49}}
\abx@aux@page{315}{50}
\@gls@reference{acronym}{pass}{\glsnoidxdisplayloc{}{page}{glsnumberformat}{49}}
\@gls@reference{acronym}{pass}{\glsnoidxdisplayloc{}{page}{glsnumberformat}{49}}
\abx@aux@page{316}{50}
\abx@aux@page{317}{50}
\abx@aux@page{318}{50}
\@gls@reference{acronym}{ass}{\glsnoidxdisplayloc{}{page}{glsnumberformat}{49}}
\abx@aux@page{319}{50}
\abx@aux@page{320}{50}
\@gls@reference{acronym}{ard}{\glsnoidxdisplayloc{}{page}{glsnumberformat}{50}}
\@gls@reference{acronym}{ass}{\glsnoidxdisplayloc{}{page}{glsnumberformat}{50}}
\abx@aux@page{321}{50}
\@gls@reference{acronym}{ass}{\glsnoidxdisplayloc{}{page}{glsnumberformat}{50}}
\abx@aux@page{322}{50}
\abx@aux@page{323}{50}
\abx@aux@page{324}{50}
\@gls@reference{acronym}{ass}{\glsnoidxdisplayloc{}{page}{glsnumberformat}{50}}
\abx@aux@page{325}{50}
\@gls@reference{acronym}{ass}{\glsnoidxdisplayloc{}{page}{glsnumberformat}{50}}
\@gls@reference{acronym}{ass}{\glsnoidxdisplayloc{}{page}{glsnumberformat}{50}}
\abx@aux@page{326}{50}
\@gls@reference{acronym}{ard}{\glsnoidxdisplayloc{}{page}{glsnumberformat}{50}}
\abx@aux@page{327}{50}
\abx@aux@cite{Baldwin2009}
\abx@aux@cite{Minh1998}
\abx@aux@cite{Michael2015}
\abx@aux@cite{Schleper1995}
\abx@aux@cite{hedrich2016distribution}
\@gls@reference{acronym}{ass}{\glsnoidxdisplayloc{}{page}{glsnumberformat}{50}}
\abx@aux@page{328}{51}
\abx@aux@page{329}{51}
\abx@aux@page{330}{51}
\@gls@reference{acronym}{ass}{\glsnoidxdisplayloc{}{page}{glsnumberformat}{51}}
\abx@aux@page{331}{51}
\@gls@reference{acronym}{amd}{\glsnoidxdisplayloc{}{page}{glsnumberformat}{51}}
\abx@aux@page{332}{51}
\abx@aux@page{333}{51}
\abx@aux@page{334}{51}
\abx@aux@page{335}{51}
\@writefile{toc}{\defcounter {refsection}{0}\relax }\@writefile{toc}{\contentsline {subsubsection}{Volcanic and geothermal environments}{51}}
\newlabel{section:volcanic}{{}{51}{Volcanic and geothermal environments}{}{}}
\abx@aux@page{336}{51}
\abx@aux@page{337}{51}
\abx@aux@page{338}{51}
\abx@aux@cite{yellowstone_db}
\abx@aux@cite{Brierley2008}
\abx@aux@cite{DARLAND1971}
\abx@aux@cite{Johnson2003a}
\abx@aux@cite{Kozubal2012}
\abx@aux@cite{Beam2013}
\abx@aux@cite{Nakamura2014}
\abx@aux@cite{Damm2013}
\abx@aux@cite{Kashefi2003}
\abx@aux@cite{Blochl1997}
\abx@aux@cite{Desbruyeres2001}
\abx@aux@cite{Antranikian2017}
\abx@aux@cite{Flores2012}
\abx@aux@cite{Reysenbach2006}
\abx@aux@cite{Huber1989}
\abx@aux@cite{Cardenas2015}
\abx@aux@cite{Colin-Garcia2016}
\abx@aux@page{339}{52}
\abx@aux@page{340}{52}
\@gls@reference{acronym}{aa.}{\glsnoidxdisplayloc{}{page}{glsnumberformat}{52}}
\abx@aux@page{341}{52}
\@gls@reference{acronym}{sb.}{\glsnoidxdisplayloc{}{page}{glsnumberformat}{52}}
\abx@aux@page{342}{52}
\abx@aux@page{343}{52}
\abx@aux@page{344}{52}
\abx@aux@page{345}{52}
\abx@aux@page{346}{52}
\abx@aux@page{347}{52}
\abx@aux@page{348}{52}
\abx@aux@page{349}{52}
\abx@aux@page{350}{52}
\abx@aux@page{351}{52}
\abx@aux@page{352}{52}
\abx@aux@page{353}{52}
\@gls@reference{acronym}{ah.}{\glsnoidxdisplayloc{}{page}{glsnumberformat}{52}}
\abx@aux@page{354}{53}
\abx@aux@page{355}{53}
\abx@aux@page{356}{53}
\abx@aux@cite{Brierley2013}
\abx@aux@cite{Ehrlich2001}
\abx@aux@cite{Petersen2016}
\abx@aux@cite{Demergasso2017}
\abx@aux@cite{Halinen2012}
\abx@aux@cite{Leahy2007}
\abx@aux@cite{Shiers2017}
\abx@aux@cite{Demergasso2005}
\abx@aux@cite{Pradhan2008}
\@writefile{toc}{\defcounter {refsection}{0}\relax }\@writefile{toc}{\contentsline {subsection}{Applications of acidophiles}{54}}
\@writefile{toc}{\defcounter {refsection}{0}\relax }\@writefile{toc}{\contentsline {subsubsection}{Biomining}{54}}
\newlabel{section:biomining}{{}{54}{Biomining}{}{}}
\abx@aux@page{357}{54}
\abx@aux@page{358}{54}
\@gls@reference{acronym}{str}{\glsnoidxdisplayloc{}{page}{glsnumberformat}{54}}
\abx@aux@page{359}{54}
\abx@aux@page{360}{54}
\abx@aux@page{361}{54}
\abx@aux@page{362}{54}
\abx@aux@page{363}{54}
\abx@aux@page{364}{54}
\abx@aux@cite{Domic2007}
\abx@aux@cite{Watling2016}
\abx@aux@cite{Watling2006}
\@writefile{lof}{\defcounter {refsection}{0}\relax }\@writefile{lof}{\contentsline {figure}{\numberline {8}{\ignorespaces Schematic illustration of a typical chalcopyrite heap-bioleaching operation, including solvent extraction and electro winning steps\relax }}{55}}
\newlabel{fig:heap}{{8}{55}{Schematic illustration of a typical chalcopyrite heap-bioleaching operation, including solvent extraction and electro winning steps\relax }{}{}}
\@gls@reference{acronym}{at.}{\glsnoidxdisplayloc{}{page}{glsnumberformat}{54}}
\@gls@reference{acronym}{l.}{\glsnoidxdisplayloc{}{page}{glsnumberformat}{54}}
\@gls@reference{acronym}{at.}{\glsnoidxdisplayloc{}{page}{glsnumberformat}{54}}
\abx@aux@page{365}{55}
\abx@aux@page{366}{55}
\abx@aux@page{367}{55}
\abx@aux@page{368}{55}
\abx@aux@cite{Rawlings2007}
\abx@aux@cite{Mahmoud2017}
\abx@aux@cite{Hedrich2018}
\abx@aux@cite{Hong2016}
\abx@aux@cite{Rawlings2002}
\abx@aux@page{369}{56}
\abx@aux@page{370}{56}
\abx@aux@page{371}{56}
\@gls@reference{acronym}{str}{\glsnoidxdisplayloc{}{page}{glsnumberformat}{56}}
\abx@aux@page{372}{56}
\@gls@reference{acronym}{orp}{\glsnoidxdisplayloc{}{page}{glsnumberformat}{56}}
\abx@aux@page{373}{56}
\@gls@reference{acronym}{str}{\glsnoidxdisplayloc{}{page}{glsnumberformat}{56}}
\abx@aux@page{374}{56}
\abx@aux@page{375}{56}
\@gls@reference{acronym}{str}{\glsnoidxdisplayloc{}{page}{glsnumberformat}{56}}
\abx@aux@page{376}{56}
\abx@aux@page{377}{56}
\abx@aux@page{378}{56}
\abx@aux@page{379}{56}
\abx@aux@cite{Petersen2010}
\abx@aux@cite{Govender2014}
\abx@aux@cite{Demergasso2010}
\abx@aux@cite{Alonso-Ayuso2014}
\abx@aux@cite{Sandstrom2005}
\abx@aux@cite{Riekkola-Vanhanen2013}
\abx@aux@cite{Crundwell2015}
\abx@aux@cite{Panda2015}
\abx@aux@cite{Khoshkhoo2014}
\abx@aux@cite{Wang2016}
\abx@aux@cite{Ya-long2017}
\abx@aux@cite{Saitoh2017}
\abx@aux@cite{Third2002}
\abx@aux@cite{Khoshkhoo2014b}
\abx@aux@cite{Khoshkhoo2014a}
\abx@aux@cite{Hiroyoshi2013}
\abx@aux@page{380}{57}
\abx@aux@page{381}{57}
\abx@aux@page{382}{57}
\abx@aux@page{383}{57}
\@writefile{toc}{\defcounter {refsection}{0}\relax }\@writefile{toc}{\contentsline {paragraph}{Chalcopyrite bioleaching}{57}}
\newlabel{section:chalcopyriteleaching}{{}{57}{Chalcopyrite bioleaching}{}{}}
\abx@aux@page{384}{57}
\abx@aux@page{385}{57}
\abx@aux@page{386}{57}
\abx@aux@page{387}{57}
\abx@aux@page{388}{57}
\abx@aux@page{389}{57}
\abx@aux@page{390}{57}
\abx@aux@page{391}{57}
\abx@aux@page{392}{57}
\abx@aux@page{393}{57}
\abx@aux@cite{Masaki2018}
\abx@aux@cite{Riekkola-Vanhanen2010}
\abx@aux@cite{Stromberg1994}
\abx@aux@cite{Dopson2007a}
\abx@aux@cite{Christel2016a}
\abx@aux@page{394}{58}
\abx@aux@page{395}{58}
\@gls@reference{acronym}{orp}{\glsnoidxdisplayloc{}{page}{glsnumberformat}{57}}
\abx@aux@page{396}{58}
\abx@aux@page{397}{58}
\abx@aux@page{398}{58}
\@gls@reference{acronym}{orp}{\glsnoidxdisplayloc{}{page}{glsnumberformat}{57}}
\abx@aux@page{399}{58}
\abx@aux@page{400}{58}
\@writefile{toc}{\defcounter {refsection}{0}\relax }\@writefile{toc}{\contentsline {paragraph}{Biomining in boreal climates}{58}}
\abx@aux@page{401}{58}
\abx@aux@page{402}{58}
\abx@aux@cite{Elleuche2014}
\abx@aux@cite{Raddadi2015}
\abx@aux@cite{Sharma2016a}
\abx@aux@cite{Shah2006}
\abx@aux@cite{Fuhrmann2013}
\abx@aux@cite{Wang2009a}
\abx@aux@cite{Gumulya2018}
\abx@aux@cite{Kernan2015}
\abx@aux@cite{Grogan2001}
\abx@aux@page{403}{59}
\abx@aux@page{404}{59}
\@gls@reference{acronym}{at.}{\glsnoidxdisplayloc{}{page}{glsnumberformat}{58}}
\abx@aux@page{405}{59}
\abx@aux@page{406}{59}
\abx@aux@page{407}{59}
\abx@aux@page{408}{59}
\abx@aux@page{409}{59}
\@writefile{toc}{\defcounter {refsection}{0}\relax }\@writefile{toc}{\contentsline {subsubsection}{Bioprospecting and genetic engineering}{59}}
\@gls@reference{acronym}{ngs}{\glsnoidxdisplayloc{}{page}{glsnumberformat}{59}}
\abx@aux@page{410}{59}
\abx@aux@page{411}{59}
\abx@aux@page{412}{59}
\abx@aux@page{413}{59}
\abx@aux@page{414}{59}
\abx@aux@page{415}{59}
\abx@aux@page{416}{59}
\abx@aux@page{417}{60}
\abx@aux@page{418}{60}
\abx@aux@page{419}{60}
\@gls@reference{acronym}{at.}{\glsnoidxdisplayloc{}{page}{glsnumberformat}{59}}
\@gls@reference{acronym}{at.}{\glsnoidxdisplayloc{}{page}{glsnumberformat}{59}}
\abx@aux@page{420}{60}
\@writefile{toc}{\defcounter {refsection}{0}\relax }\@writefile{toc}{\contentsline {section}{Aims of this Thesis}{61}}
\@gls@reference{acronym}{ard}{\glsnoidxdisplayloc{}{page}{glsnumberformat}{61}}
\@gls@reference{acronym}{amd}{\glsnoidxdisplayloc{}{page}{glsnumberformat}{61}}
\@gls@reference{acronym}{at.}{\glsnoidxdisplayloc{}{page}{glsnumberformat}{61}}
\@gls@reference{acronym}{ard}{\glsnoidxdisplayloc{}{page}{glsnumberformat}{61}}
\@gls@reference{acronym}{amd}{\glsnoidxdisplayloc{}{page}{glsnumberformat}{61}}
\@gls@reference{acronym}{l.}{\glsnoidxdisplayloc{}{page}{glsnumberformat}{61}}
\@gls@reference{acronym}{at.}{\glsnoidxdisplayloc{}{page}{glsnumberformat}{61}}
\@gls@reference{acronym}{s.}{\glsnoidxdisplayloc{}{page}{glsnumberformat}{61}}
\@gls@reference{acronym}{l.}{\glsnoidxdisplayloc{}{page}{glsnumberformat}{61}}
\@gls@reference{acronym}{ass}{\glsnoidxdisplayloc{}{page}{glsnumberformat}{61}}
\@writefile{toc}{\defcounter {refsection}{0}\relax }\@writefile{toc}{\contentsline {section}{Methodology}{63}}
\@writefile{toc}{\defcounter {refsection}{0}\relax }\@writefile{toc}{\contentsline {subsection}{Experiments and sampling}{63}}
\@gls@reference{acronym}{at.}{\glsnoidxdisplayloc{}{page}{glsnumberformat}{63}}
\@gls@reference{acronym}{l.}{\glsnoidxdisplayloc{}{page}{glsnumberformat}{63}}
\newlabel{RF1}{64}
\@writefile{lot}{\defcounter {refsection}{0}\relax }\@writefile{lot}{\contentsline {table}{\numberline {1}{\ignorespaces Summary of experimental conditions and sequencing technologies used in the studies included in this thesis. \relax }}{64}}
\newlabel{tab:methods}{{1}{64}{Methodology}{}{}}
\abx@aux@cite{Seemann2014}
\abx@aux@cite{Markowitz2012}
\abx@aux@cite{Edgar2013}
\abx@aux@cite{McMurdie2013}
\@gls@reference{acronym}{at.}{\glsnoidxdisplayloc{}{page}{glsnumberformat}{63}}
\@gls@reference{acronym}{l.}{\glsnoidxdisplayloc{}{page}{glsnumberformat}{63}}
\@gls@reference{acronym}{s.}{\glsnoidxdisplayloc{}{page}{glsnumberformat}{63}}
\@gls@reference{acronym}{orp}{\glsnoidxdisplayloc{}{page}{glsnumberformat}{63}}
\@gls@reference{acronym}{l.}{\glsnoidxdisplayloc{}{page}{glsnumberformat}{63}}
\@gls@reference{acronym}{ass}{\glsnoidxdisplayloc{}{page}{glsnumberformat}{65}}
\@writefile{toc}{\defcounter {refsection}{0}\relax }\@writefile{toc}{\contentsline {subsection}{Sequencing}{65}}
\@gls@reference{acronym}{l.}{\glsnoidxdisplayloc{}{page}{glsnumberformat}{65}}
\@gls@reference{acronym}{ass}{\glsnoidxdisplayloc{}{page}{glsnumberformat}{65}}
\@writefile{toc}{\defcounter {refsection}{0}\relax }\@writefile{toc}{\contentsline {subsection}{Multi "-omics" analysis}{65}}
\@gls@reference{acronym}{l.}{\glsnoidxdisplayloc{}{page}{glsnumberformat}{65}}
\abx@aux@page{421}{65}
\abx@aux@cite{Trapnell2012}
\abx@aux@cite{Love2014}
\abx@aux@cite{Cox2011}
\abx@aux@cite{Tyanova2016}
\abx@aux@page{422}{66}
\abx@aux@page{423}{66}
\@gls@reference{acronym}{otu}{\glsnoidxdisplayloc{}{page}{glsnumberformat}{65}}
\abx@aux@page{424}{66}
\abx@aux@page{425}{66}
\@gls@reference{acronym}{at.}{\glsnoidxdisplayloc{}{page}{glsnumberformat}{66}}
\abx@aux@page{426}{66}
\@gls@reference{acronym}{l.}{\glsnoidxdisplayloc{}{page}{glsnumberformat}{66}}
\abx@aux@page{427}{66}
\@gls@reference{acronym}{l.}{\glsnoidxdisplayloc{}{page}{glsnumberformat}{66}}
\abx@aux@page{428}{66}
\abx@aux@page{429}{66}
\@writefile{toc}{\defcounter {refsection}{0}\relax }\@writefile{toc}{\contentsline {section}{Summary of Results}{67}}
\@gls@reference{acronym}{at.}{\glsnoidxdisplayloc{}{page}{glsnumberformat}{67}}
\@gls@reference{acronym}{l.}{\glsnoidxdisplayloc{}{page}{glsnumberformat}{67}}
\@gls@reference{acronym}{at.}{\glsnoidxdisplayloc{}{page}{glsnumberformat}{67}}
\@gls@reference{acronym}{isc}{\glsnoidxdisplayloc{}{page}{glsnumberformat}{67}}
\@gls@reference{acronym}{l.}{\glsnoidxdisplayloc{}{page}{glsnumberformat}{67}}
\@gls@reference{acronym}{l.}{\glsnoidxdisplayloc{}{page}{glsnumberformat}{67}}
\@gls@reference{acronym}{s.}{\glsnoidxdisplayloc{}{page}{glsnumberformat}{67}}
\@gls@reference{acronym}{at.}{\glsnoidxdisplayloc{}{page}{glsnumberformat}{67}}
\@writefile{lof}{\defcounter {refsection}{0}\relax }\@writefile{lof}{\contentsline {figure}{\numberline {9}{\ignorespaces Summary of "-omics" analysis conducted during the work on this thesis. Roman numerals refer to the papers as described in section \textit  {\nameref  {section:pubs}}\relax }}{68}}
\newlabel{fig:omics}{{9}{68}{Summary of "-omics" analysis conducted during the work on this thesis. Roman numerals refer to the papers as described in section \textit {\nameref {section:pubs}}\relax }{}{}}
\@gls@reference{acronym}{ass}{\glsnoidxdisplayloc{}{page}{glsnumberformat}{69}}
\@gls@reference{acronym}{ass}{\glsnoidxdisplayloc{}{page}{glsnumberformat}{69}}
\@writefile{toc}{\defcounter {refsection}{0}\relax }\@writefile{toc}{\contentsline {subsection}{Papers I-IV: Systems biology of biomining organisms}{69}}
\@writefile{toc}{\defcounter {refsection}{0}\relax }\@writefile{toc}{\contentsline {paragraph}{Physiology of cold-adapted \textit  {Acidithiobacillus ferrivorans}}{69}}
\@gls@reference{acronym}{at.}{\glsnoidxdisplayloc{}{page}{glsnumberformat}{69}}
\abx@aux@page{430}{69}
\abx@aux@page{431}{69}
\@gls@reference{acronym}{at.}{\glsnoidxdisplayloc{}{page}{glsnumberformat}{69}}
\abx@aux@page{432}{70}
\@gls@reference{acronym}{at.}{\glsnoidxdisplayloc{}{page}{glsnumberformat}{70}}
\@gls@reference{acronym}{at.}{\glsnoidxdisplayloc{}{page}{glsnumberformat}{70}}
\@gls@reference{acronym}{csp}{\glsnoidxdisplayloc{}{page}{glsnumberformat}{70}}
\@gls@reference{acronym}{at.}{\glsnoidxdisplayloc{}{page}{glsnumberformat}{70}}
\@gls@reference{acronym}{csp}{\glsnoidxdisplayloc{}{page}{glsnumberformat}{70}}
\@gls@reference{acronym}{at.}{\glsnoidxdisplayloc{}{page}{glsnumberformat}{70}}
\@gls@reference{acronym}{at.}{\glsnoidxdisplayloc{}{page}{glsnumberformat}{70}}
\@gls@reference{acronym}{at.}{\glsnoidxdisplayloc{}{page}{glsnumberformat}{70}}
\@writefile{toc}{\defcounter {refsection}{0}\relax }\@writefile{toc}{\contentsline {paragraph}{Physiology of iron-oxidizer \textit  {Leptospirillum ferriphilum}}{70}}
\@gls@reference{acronym}{l.}{\glsnoidxdisplayloc{}{page}{glsnumberformat}{70}}
\@gls@reference{acronym}{l.}{\glsnoidxdisplayloc{}{page}{glsnumberformat}{70}}
\@gls@reference{acronym}{l.}{\glsnoidxdisplayloc{}{page}{glsnumberformat}{70}}
\@gls@reference{acronym}{l.}{\glsnoidxdisplayloc{}{page}{glsnumberformat}{71}}
\@writefile{toc}{\defcounter {refsection}{0}\relax }\@writefile{toc}{\contentsline {paragraph}{Community-controlled leaching of chalcopyrite}{71}}
\abx@aux@page{433}{71}
\@gls@reference{acronym}{l.}{\glsnoidxdisplayloc{}{page}{glsnumberformat}{71}}
\@gls@reference{acronym}{s.}{\glsnoidxdisplayloc{}{page}{glsnumberformat}{71}}
\@gls@reference{acronym}{at.}{\glsnoidxdisplayloc{}{page}{glsnumberformat}{71}}
\@gls@reference{acronym}{orp}{\glsnoidxdisplayloc{}{page}{glsnumberformat}{71}}
\@gls@reference{acronym}{l.}{\glsnoidxdisplayloc{}{page}{glsnumberformat}{71}}
\@gls@reference{acronym}{s.}{\glsnoidxdisplayloc{}{page}{glsnumberformat}{71}}
\@gls@reference{acronym}{orp}{\glsnoidxdisplayloc{}{page}{glsnumberformat}{71}}
\@gls@reference{acronym}{orp}{\glsnoidxdisplayloc{}{page}{glsnumberformat}{71}}
\@gls@reference{acronym}{l.}{\glsnoidxdisplayloc{}{page}{glsnumberformat}{71}}
\@gls@reference{acronym}{s.}{\glsnoidxdisplayloc{}{page}{glsnumberformat}{71}}
\@gls@reference{acronym}{l.}{\glsnoidxdisplayloc{}{page}{glsnumberformat}{71}}
\@gls@reference{acronym}{s.}{\glsnoidxdisplayloc{}{page}{glsnumberformat}{71}}
\@gls@reference{acronym}{s.}{\glsnoidxdisplayloc{}{page}{glsnumberformat}{71}}
\@gls@reference{acronym}{l.}{\glsnoidxdisplayloc{}{page}{glsnumberformat}{71}}
\@gls@reference{acronym}{eps}{\glsnoidxdisplayloc{}{page}{glsnumberformat}{71}}
\@gls@reference{acronym}{orp}{\glsnoidxdisplayloc{}{page}{glsnumberformat}{71}}
\@writefile{toc}{\defcounter {refsection}{0}\relax }\@writefile{toc}{\contentsline {subsection}{Paper V: Acid sulfate soil in Sweden}{72}}
\@gls@reference{acronym}{ass}{\glsnoidxdisplayloc{}{page}{glsnumberformat}{72}}
\@gls@reference{acronym}{ass}{\glsnoidxdisplayloc{}{page}{glsnumberformat}{72}}
\@gls@reference{acronym}{ass}{\glsnoidxdisplayloc{}{page}{glsnumberformat}{72}}
\@gls@reference{acronym}{ass}{\glsnoidxdisplayloc{}{page}{glsnumberformat}{72}}
\@gls@reference{acronym}{otu}{\glsnoidxdisplayloc{}{page}{glsnumberformat}{72}}
\@gls@reference{acronym}{otu}{\glsnoidxdisplayloc{}{page}{glsnumberformat}{72}}
\@gls@reference{acronym}{ass}{\glsnoidxdisplayloc{}{page}{glsnumberformat}{72}}
\@gls@reference{acronym}{ass}{\glsnoidxdisplayloc{}{page}{glsnumberformat}{72}}
\@gls@reference{acronym}{ass}{\glsnoidxdisplayloc{}{page}{glsnumberformat}{72}}
\@gls@reference{acronym}{pass}{\glsnoidxdisplayloc{}{page}{glsnumberformat}{72}}
\@writefile{toc}{\defcounter {refsection}{0}\relax }\@writefile{toc}{\contentsline {section}{Conclusions}{75}}
\@gls@reference{acronym}{ard}{\glsnoidxdisplayloc{}{page}{glsnumberformat}{75}}
\@gls@reference{acronym}{amd}{\glsnoidxdisplayloc{}{page}{glsnumberformat}{75}}
\@gls@reference{acronym}{ass}{\glsnoidxdisplayloc{}{page}{glsnumberformat}{75}}
\@writefile{toc}{\defcounter {refsection}{0}\relax }\@writefile{toc}{\contentsline {section}{Acknowledgements}{77}}
\@writefile{toc}{\defcounter {refsection}{0}\relax }\@writefile{toc}{\contentsline {section}{References}{81}}
\abx@aux@page{434}{81}
\abx@aux@page{435}{81}
\abx@aux@page{436}{81}
\abx@aux@page{437}{81}
\abx@aux@page{438}{81}
\abx@aux@page{439}{81}
\abx@aux@page{440}{81}
\abx@aux@page{441}{81}
\abx@aux@page{442}{81}
\abx@aux@page{443}{81}
\abx@aux@page{444}{81}
\abx@aux@page{445}{81}
\abx@aux@page{446}{81}
\abx@aux@page{447}{81}
\abx@aux@page{448}{81}
\abx@aux@page{449}{81}
\abx@aux@page{450}{82}
\abx@aux@page{451}{82}
\abx@aux@page{452}{82}
\abx@aux@page{453}{82}
\abx@aux@page{454}{82}
\abx@aux@page{455}{82}
\abx@aux@page{456}{82}
\abx@aux@page{457}{82}
\abx@aux@page{458}{82}
\abx@aux@page{459}{82}
\abx@aux@page{460}{82}
\abx@aux@page{461}{82}
\abx@aux@page{462}{82}
\abx@aux@page{463}{82}
\abx@aux@page{464}{82}
\abx@aux@page{465}{82}
\abx@aux@page{466}{82}
\abx@aux@page{467}{82}
\abx@aux@page{468}{82}
\abx@aux@page{469}{82}
\abx@aux@page{470}{82}
\abx@aux@page{471}{82}
\abx@aux@page{472}{83}
\abx@aux@page{473}{83}
\abx@aux@page{474}{83}
\abx@aux@page{475}{83}
\abx@aux@page{476}{83}
\abx@aux@page{477}{83}
\abx@aux@page{478}{83}
\abx@aux@page{479}{83}
\abx@aux@page{480}{83}
\abx@aux@page{481}{83}
\abx@aux@page{482}{83}
\abx@aux@page{483}{83}
\abx@aux@page{484}{83}
\abx@aux@page{485}{83}
\abx@aux@page{486}{83}
\abx@aux@page{487}{83}
\abx@aux@page{488}{83}
\abx@aux@page{489}{83}
\abx@aux@page{490}{83}
\abx@aux@page{491}{83}
\abx@aux@page{492}{83}
\abx@aux@page{493}{83}
\abx@aux@page{494}{84}
\abx@aux@page{495}{84}
\abx@aux@page{496}{84}
\abx@aux@page{497}{84}
\abx@aux@page{498}{84}
\abx@aux@page{499}{84}
\abx@aux@page{500}{84}
\abx@aux@page{501}{84}
\abx@aux@page{502}{84}
\abx@aux@page{503}{84}
\abx@aux@page{504}{84}
\abx@aux@page{505}{84}
\abx@aux@page{506}{84}
\abx@aux@page{507}{84}
\abx@aux@page{508}{84}
\abx@aux@page{509}{84}
\abx@aux@page{510}{84}
\abx@aux@page{511}{84}
\abx@aux@page{512}{84}
\abx@aux@page{513}{84}
\abx@aux@page{514}{84}
\abx@aux@page{515}{84}
\abx@aux@page{516}{84}
\abx@aux@page{517}{84}
\abx@aux@page{518}{85}
\abx@aux@page{519}{85}
\abx@aux@page{520}{85}
\abx@aux@page{521}{85}
\abx@aux@page{522}{85}
\abx@aux@page{523}{85}
\abx@aux@page{524}{85}
\abx@aux@page{525}{85}
\abx@aux@page{526}{85}
\abx@aux@page{527}{85}
\abx@aux@page{528}{85}
\abx@aux@page{529}{85}
\abx@aux@page{530}{85}
\abx@aux@page{531}{85}
\abx@aux@page{532}{85}
\abx@aux@page{533}{85}
\abx@aux@page{534}{85}
\abx@aux@page{535}{85}
\abx@aux@page{536}{85}
\abx@aux@page{537}{86}
\abx@aux@page{538}{86}
\abx@aux@page{539}{86}
\abx@aux@page{540}{86}
\abx@aux@page{541}{86}
\abx@aux@page{542}{86}
\abx@aux@page{543}{86}
\abx@aux@page{544}{86}
\abx@aux@page{545}{86}
\abx@aux@page{546}{86}
\abx@aux@page{547}{86}
\abx@aux@page{548}{86}
\abx@aux@page{549}{86}
\abx@aux@page{550}{86}
\abx@aux@page{551}{86}
\abx@aux@page{552}{86}
\abx@aux@page{553}{86}
\abx@aux@page{554}{86}
\abx@aux@page{555}{86}
\abx@aux@page{556}{86}
\abx@aux@page{557}{87}
\abx@aux@page{558}{87}
\abx@aux@page{559}{87}
\abx@aux@page{560}{87}
\abx@aux@page{561}{87}
\abx@aux@page{562}{87}
\abx@aux@page{563}{87}
\abx@aux@page{564}{87}
\abx@aux@page{565}{87}
\abx@aux@page{566}{87}
\abx@aux@page{567}{87}
\abx@aux@page{568}{87}
\abx@aux@page{569}{87}
\abx@aux@page{570}{87}
\abx@aux@page{571}{87}
\abx@aux@page{572}{87}
\abx@aux@page{573}{87}
\abx@aux@page{574}{87}
\abx@aux@page{575}{87}
\abx@aux@page{576}{88}
\abx@aux@page{577}{88}
\abx@aux@page{578}{88}
\abx@aux@page{579}{88}
\abx@aux@page{580}{88}
\abx@aux@page{581}{88}
\abx@aux@page{582}{88}
\abx@aux@page{583}{88}
\abx@aux@page{584}{88}
\abx@aux@page{585}{88}
\abx@aux@page{586}{88}
\abx@aux@page{587}{88}
\abx@aux@page{588}{88}
\abx@aux@page{589}{88}
\abx@aux@page{590}{88}
\abx@aux@page{591}{88}
\abx@aux@page{592}{88}
\abx@aux@page{593}{88}
\abx@aux@page{594}{89}
\abx@aux@page{595}{89}
\abx@aux@page{596}{89}
\abx@aux@page{597}{89}
\abx@aux@page{598}{89}
\abx@aux@page{599}{89}
\abx@aux@page{600}{89}
\abx@aux@page{601}{89}
\abx@aux@page{602}{89}
\abx@aux@page{603}{89}
\abx@aux@page{604}{89}
\abx@aux@page{605}{89}
\abx@aux@page{606}{89}
\abx@aux@page{607}{89}
\abx@aux@page{608}{89}
\abx@aux@page{609}{89}
\abx@aux@page{610}{89}
\abx@aux@page{611}{89}
\abx@aux@page{612}{89}
\abx@aux@page{613}{89}
\abx@aux@page{614}{89}
\abx@aux@page{615}{90}
\abx@aux@page{616}{90}
\abx@aux@page{617}{90}
\abx@aux@page{618}{90}
\abx@aux@page{619}{90}
\abx@aux@page{620}{90}
\abx@aux@page{621}{90}
\abx@aux@page{622}{90}
\abx@aux@page{623}{90}
\abx@aux@page{624}{90}
\abx@aux@page{625}{90}
\abx@aux@page{626}{90}
\abx@aux@page{627}{90}
\abx@aux@page{628}{90}
\abx@aux@page{629}{90}
\abx@aux@page{630}{90}
\abx@aux@page{631}{90}
\abx@aux@page{632}{90}
\abx@aux@page{633}{90}
\abx@aux@page{634}{90}
\abx@aux@page{635}{90}
\abx@aux@page{636}{90}
\abx@aux@page{637}{90}
\abx@aux@page{638}{91}
\abx@aux@page{639}{91}
\abx@aux@page{640}{91}
\abx@aux@page{641}{91}
\abx@aux@page{642}{91}
\abx@aux@page{643}{91}
\abx@aux@page{644}{91}
\abx@aux@page{645}{91}
\abx@aux@page{646}{91}
\abx@aux@page{647}{91}
\abx@aux@page{648}{91}
\abx@aux@page{649}{91}
\abx@aux@page{650}{91}
\abx@aux@page{651}{91}
\abx@aux@page{652}{91}
\abx@aux@page{653}{91}
\abx@aux@page{654}{91}
\abx@aux@page{655}{91}
\abx@aux@page{656}{91}
\abx@aux@page{657}{91}
\abx@aux@page{658}{91}
\abx@aux@page{659}{92}
\abx@aux@page{660}{92}
\abx@aux@page{661}{92}
\abx@aux@page{662}{92}
\abx@aux@page{663}{92}
\abx@aux@page{664}{92}
\abx@aux@page{665}{92}
\abx@aux@page{666}{92}
\abx@aux@page{667}{92}
\abx@aux@page{668}{92}
\abx@aux@page{669}{92}
\abx@aux@page{670}{92}
\abx@aux@page{671}{92}
\abx@aux@page{672}{92}
\abx@aux@page{673}{92}
\abx@aux@page{674}{92}
\abx@aux@page{675}{92}
\abx@aux@page{676}{92}
\abx@aux@page{677}{92}
\abx@aux@page{678}{92}
\abx@aux@page{679}{92}
\abx@aux@page{680}{92}
\abx@aux@page{681}{92}
\abx@aux@page{682}{93}
\abx@aux@page{683}{93}
\abx@aux@page{684}{93}
\abx@aux@page{685}{93}
\abx@aux@page{686}{93}
\abx@aux@page{687}{93}
\abx@aux@page{688}{93}
\abx@aux@page{689}{93}
\abx@aux@page{690}{93}
\abx@aux@page{691}{93}
\abx@aux@page{692}{93}
\abx@aux@page{693}{93}
\abx@aux@page{694}{93}
\abx@aux@page{695}{93}
\abx@aux@page{696}{93}
\abx@aux@page{697}{93}
\abx@aux@page{698}{93}
\abx@aux@page{699}{93}
\abx@aux@page{700}{93}
\abx@aux@page{701}{93}
\abx@aux@page{702}{93}
\abx@aux@page{703}{94}
\abx@aux@page{704}{94}
\abx@aux@page{705}{94}
\abx@aux@page{706}{94}
\abx@aux@page{707}{94}
\abx@aux@page{708}{94}
\abx@aux@page{709}{94}
\abx@aux@page{710}{94}
\abx@aux@page{711}{94}
\abx@aux@page{712}{94}
\abx@aux@page{713}{94}
\abx@aux@page{714}{94}
\abx@aux@page{715}{94}
\abx@aux@page{716}{94}
\abx@aux@page{717}{94}
\abx@aux@page{718}{94}
\abx@aux@page{719}{94}
\abx@aux@page{720}{94}
\abx@aux@page{721}{94}
\abx@aux@page{722}{94}
\abx@aux@page{723}{94}
\abx@aux@page{724}{95}
\abx@aux@page{725}{95}
\abx@aux@page{726}{95}
\abx@aux@page{727}{95}
\abx@aux@page{728}{95}
\abx@aux@page{729}{95}
\abx@aux@page{730}{95}
\abx@aux@page{731}{95}
\abx@aux@page{732}{95}
\abx@aux@page{733}{95}
\abx@aux@page{734}{95}
\abx@aux@page{735}{95}
\abx@aux@page{736}{95}
\abx@aux@page{737}{95}
\abx@aux@page{738}{95}
\abx@aux@page{739}{95}
\abx@aux@page{740}{95}
\abx@aux@page{741}{95}
\abx@aux@page{742}{95}
\abx@aux@page{743}{95}
